Comparing Planning Algorithms
…
Code

all_rewards = @pipe all_sim_data |> 
    @subset(_, :plan_type .== "none") |> 
    get_rewards_data.(_.state, Ref(actlist), Ref(util_model)) |>
    [@transform!(rd[2], :sim = rd[1]) for rd in enumerate(_)] |>
    vcat(_...) |>
    insertcols!(_, :reward_type => "actual")

880×7 DataFrame
 Row │ step   reward     ex_ante_reward  actprog  cumul_reward  sim    reward_ ⋯
     │ Int64  Float64    Float64         Int64    Float64       Int64  String  ⋯
─────┼──────────────────────────────────────────────────────────────────────────
   1 │     1  -2.76925         -1.1968         1      -2.76925      1  actual  ⋯
   2 │     1  -2.94812         -1.39986        2      -2.94812      1  actual
   3 │     1  -2.97349         -1.45228        3      -2.97349      1  actual
   4 │     1  -3.62779         -1.26927        4      -3.62779      1  actual
   5 │     1  -2.86039         -1.26           5      -2.86039      1  actual  ⋯
   6 │     1  -2.70779         -1.26317        6      -2.70779      1  actual
   7 │     1  -2.85488         -1.19594        7      -2.85488      1  actual
   8 │     1  -2.47722         -1.14236        8      -2.47722      1  actual
  ⋮  │   ⋮        ⋮            ⋮            ⋮          ⋮          ⋮         ⋮  ⋱
 874 │    16  -1.81836         -1.57049        5     -21.7954       5  actual  ⋯
 875 │    16  -1.57764         -1.48196        6     -20.1126       5  actual
 876 │    16  -2.01171         -1.64246        7     -20.9064       5  actual
 877 │    16  -1.4755          -1.56242        8     -22.6594       5  actual
 878 │    16  -0.923929        -1.33633        9     -17.1507       5  actual  ⋯
 879 │    16  -1.24969         -1.65049       10     -21.2122       5  actual
 880 │    16  -1.58333         -1.44075        0     -19.1146       5  actual
                                                   1 column and 865 rows omitted

Code

obs_act = @pipe [pftdpw_sim_data, random_sim_data, freq_sim_data] |> 
  [vcat(get_actions_data.(getindex(d, :, :action))..., source = :sim) for d in _] |> 
  vcat(_..., source = :algo => ["pftdpw", "random", "freq"])

225×5 DataFrame
 Row │ implement_programs  eval_programs  step   sim    algo
     │ Int64               Int64          Int64  Int64  String
─────┼─────────────────────────────────────────────────────────
   1 │                  5              8      1      1  pftdpw
   2 │                  5              7      2      1  pftdpw
   3 │                  5              4      3      1  pftdpw
   4 │                  5              2      4      1  pftdpw
   5 │                  5              9      5      1  pftdpw
   6 │                  5              5      6      1  pftdpw
   7 │                  1              8      7      1  pftdpw
   8 │                  1              5      8      1  pftdpw
  ⋮  │         ⋮                 ⋮          ⋮      ⋮      ⋮
 219 │                  5              8      9      5  freq
 220 │                  5              8     10      5  freq
 221 │                  5              3     11      5  freq
 222 │                  5              9     12      5  freq
 223 │                  5              3     13      5  freq
 224 │                  5              9     14      5  freq
 225 │                  5              3     15      5  freq
                                               210 rows omitted
…
